#-----------------------------------------------------------
# PlanAhead v14.7 (64-bit)
# Build 321239 by xbuild on Fri Sep 27 19:29:51 MDT 2013
# Start of session at: Fri Dec 22 10:28:38 2023
# Process ID: 14276
# Log file: D:/Androsov/spi/ADC_control/ise/adc_cntr_prjctl/planAhead_run_2/planAhead.log
# Journal file: D:/Androsov/spi/ADC_control/ise/adc_cntr_prjctl/planAhead_run_2/planAhead.jou
#-----------------------------------------------------------
INFO: [Common 17-78] Attempting to get a license: PlanAhead
INFO: [Common 17-290] Got license for PlanAhead
INFO: [Device 21-36] Loading parts and site information from D:/xilinx/14.7/ISE_DS/PlanAhead/data/parts/arch.xml
Parsing RTL primitives file [D:/xilinx/14.7/ISE_DS/PlanAhead/data/parts/xilinx/rtl/prims/rtl_prims.xml]
Finished parsing RTL primitives file [D:/xilinx/14.7/ISE_DS/PlanAhead/data/parts/xilinx/rtl/prims/rtl_prims.xml]
start_gui
INFO: [Common 17-81] Feature available: PartialReconfiguration
source D:/Androsov/spi/ADC_control/ise/adc_cntr_prjctl/pa.fromNetlist.tcl
# create_project -name adc_cntr_prjctl -dir "D:/Androsov/spi/ADC_control/ise/adc_cntr_prjctl/planAhead_run_2" -part xc6slx9tqg144-3
# set_property design_mode GateLvl [get_property srcset [current_run -impl]]
# set_property edif_top_file "D:/Androsov/spi/ADC_control/ise/adc_cntr_prjctl/adc_cntrl_tl_cs.ngc" [ get_property srcset [ current_run ] ]
# add_files -norecurse { {D:/Androsov/spi/ADC_control/ise/adc_cntr_prjctl} {ipcore_dir} }
# set_param project.pinAheadLayout  yes
# set_property target_constrs_file "adc_cntrl_tl.ucf" [current_fileset -constrset]
Adding file 'D:/Androsov/spi/ADC_control/ise/adc_cntr_prjctl/adc_cntrl_tl.ucf' to fileset 'constrs_1'
# add_files [list {adc_cntrl_tl.ucf}] -fileset [get_property constrset [current_run]]
# link_design
Design is defaulting to srcset: sources_1
Design is defaulting to constrset: constrs_1
Design is defaulting to project part: xc6slx9tqg144-3
Release 14.7 - ngc2edif P.20131013 (nt64)
Copyright (c) 1995-2013 Xilinx, Inc.  All rights reserved.
Reading design adc_cntrl_tl_cs.ngc ...
Processing design ...
   Preping design's networks ...
   Preping design's macros ...
WARNING:NetListWriters:306 - Signal bus
   U0/I_NO_D.U_ILA/U_RST/U_HALT_XFER/iDOUT_dly<2 : 0> on block ila_pro_0 is not
   reconstructed, because there are some missing bus signals.
WARNING:NetListWriters:306 - Signal bus
   U0/I_NO_D.U_ILA/U_RST/U_ARM_XFER/iDOUT_dly<4 : 0> on block ila_pro_0 is not
   reconstructed, because there are some missing bus signals.
WARNING:NetListWriters:306 - Signal bus U0/U_ICON/iCORE_ID_SEL<15 : 0> on block
   icon_pro is not reconstructed, because there are some missing bus signals.
  finished :Prep
Writing EDIF netlist file adc_cntrl_tl_cs.edif ...
ngc2edif: Total memory usage is 4322560 kilobytes

Parsing EDIF File [./planAhead_run_2/adc_cntr_prjctl.data/cache/adc_cntrl_tl_cs_ngc_zx.edif]
Finished Parsing EDIF File [./planAhead_run_2/adc_cntr_prjctl.data/cache/adc_cntrl_tl_cs_ngc_zx.edif]
Loading clock regions from D:/xilinx/14.7/ISE_DS/PlanAhead/data\parts/xilinx/spartan6/spartan6lx/xc6slx9/ClockRegion.xml
Loading clock buffers from D:/xilinx/14.7/ISE_DS/PlanAhead/data\parts/xilinx/spartan6/spartan6lx/xc6slx9/ClockBuffers.xml
Loading package pin functions from D:/xilinx/14.7/ISE_DS/PlanAhead/data\parts/xilinx/spartan6/PinFunctions.xml...
Loading package from D:/xilinx/14.7/ISE_DS/PlanAhead/data\parts/xilinx/spartan6/spartan6lx/xc6slx9/tqg144/Package.xml
Loading io standards from D:/xilinx/14.7/ISE_DS/PlanAhead/data\./parts/xilinx/spartan6/IOStandards.xml
Loading device configuration modes from D:/xilinx/14.7/ISE_DS/PlanAhead/data\parts/xilinx/spartan6/ConfigModes.xml
Loading list of drcs for the architecture : D:/xilinx/14.7/ISE_DS/PlanAhead/data\./parts/xilinx/spartan6/drc.xml
WARNING: [Timing 38-83] Timing library cell SRLC32E does not define port A[4] which is referred to in the netlist. The library cell will be ignored and the cell will be treated as a black box for timing purposes.
WARNING: [Timing 38-83] Timing library cell SRLC32E does not define port A[3] which is referred to in the netlist. The library cell will be ignored and the cell will be treated as a black box for timing purposes.
WARNING: [Timing 38-83] Timing library cell SRLC32E does not define port A[2] which is referred to in the netlist. The library cell will be ignored and the cell will be treated as a black box for timing purposes.
WARNING: [Timing 38-83] Timing library cell SRLC32E does not define port A[1] which is referred to in the netlist. The library cell will be ignored and the cell will be treated as a black box for timing purposes.
WARNING: [Timing 38-83] Timing library cell SRLC32E does not define port A[0] which is referred to in the netlist. The library cell will be ignored and the cell will be treated as a black box for timing purposes.
Parsing UCF File [D:/Androsov/spi/ADC_control/ise/adc_cntr_prjctl/.Xil/PlanAhead-14276-androsov-es/ngc2edif/adc_cntrl_tl_cs.xncf]
Finished Parsing UCF File [D:/Androsov/spi/ADC_control/ise/adc_cntr_prjctl/.Xil/PlanAhead-14276-androsov-es/ngc2edif/adc_cntrl_tl_cs.xncf]
Parsing UCF File [D:/Androsov/spi/ADC_control/ise/adc_cntr_prjctl/adc_cntrl_tl.ucf]
CRITICAL WARNING: [Constraints 18-11] Could not find net or pin 'o_DOUTA[17]' [D:/Androsov/spi/ADC_control/ise/adc_cntr_prjctl/adc_cntrl_tl.ucf:4]
CRITICAL WARNING: [Constraints 18-11] Could not find net or pin 'o_DOUTA[16]' [D:/Androsov/spi/ADC_control/ise/adc_cntr_prjctl/adc_cntrl_tl.ucf:5]
CRITICAL WARNING: [Constraints 18-11] Could not find net or pin 'o_DOUTA[15]' [D:/Androsov/spi/ADC_control/ise/adc_cntr_prjctl/adc_cntrl_tl.ucf:6]
CRITICAL WARNING: [Constraints 18-11] Could not find net or pin 'o_DOUTA[14]' [D:/Androsov/spi/ADC_control/ise/adc_cntr_prjctl/adc_cntrl_tl.ucf:7]
CRITICAL WARNING: [Constraints 18-11] Could not find net or pin 'o_DOUTA[13]' [D:/Androsov/spi/ADC_control/ise/adc_cntr_prjctl/adc_cntrl_tl.ucf:8]
CRITICAL WARNING: [Constraints 18-11] Could not find net or pin 'o_DOUTA[12]' [D:/Androsov/spi/ADC_control/ise/adc_cntr_prjctl/adc_cntrl_tl.ucf:9]
CRITICAL WARNING: [Constraints 18-11] Could not find net or pin 'o_DOUTA[11]' [D:/Androsov/spi/ADC_control/ise/adc_cntr_prjctl/adc_cntrl_tl.ucf:10]
CRITICAL WARNING: [Constraints 18-11] Could not find net or pin 'o_DOUTA[10]' [D:/Androsov/spi/ADC_control/ise/adc_cntr_prjctl/adc_cntrl_tl.ucf:11]
CRITICAL WARNING: [Constraints 18-11] Could not find net or pin 'o_DOUTA[9]' [D:/Androsov/spi/ADC_control/ise/adc_cntr_prjctl/adc_cntrl_tl.ucf:12]
CRITICAL WARNING: [Constraints 18-11] Could not find net or pin 'o_DOUTA[8]' [D:/Androsov/spi/ADC_control/ise/adc_cntr_prjctl/adc_cntrl_tl.ucf:13]
CRITICAL WARNING: [Constraints 18-11] Could not find net or pin 'o_DOUTA[7]' [D:/Androsov/spi/ADC_control/ise/adc_cntr_prjctl/adc_cntrl_tl.ucf:14]
CRITICAL WARNING: [Constraints 18-11] Could not find net or pin 'o_DOUTA[6]' [D:/Androsov/spi/ADC_control/ise/adc_cntr_prjctl/adc_cntrl_tl.ucf:15]
CRITICAL WARNING: [Constraints 18-11] Could not find net or pin 'o_DOUTA[5]' [D:/Androsov/spi/ADC_control/ise/adc_cntr_prjctl/adc_cntrl_tl.ucf:16]
CRITICAL WARNING: [Constraints 18-11] Could not find net or pin 'o_DOUTA[4]' [D:/Androsov/spi/ADC_control/ise/adc_cntr_prjctl/adc_cntrl_tl.ucf:17]
CRITICAL WARNING: [Constraints 18-11] Could not find net or pin 'o_DOUTA[3]' [D:/Androsov/spi/ADC_control/ise/adc_cntr_prjctl/adc_cntrl_tl.ucf:18]
CRITICAL WARNING: [Constraints 18-11] Could not find net or pin 'o_DOUTA[2]' [D:/Androsov/spi/ADC_control/ise/adc_cntr_prjctl/adc_cntrl_tl.ucf:19]
CRITICAL WARNING: [Constraints 18-11] Could not find net or pin 'o_DOUTA[1]' [D:/Androsov/spi/ADC_control/ise/adc_cntr_prjctl/adc_cntrl_tl.ucf:20]
CRITICAL WARNING: [Constraints 18-11] Could not find net or pin 'o_DOUTA[0]' [D:/Androsov/spi/ADC_control/ise/adc_cntr_prjctl/adc_cntrl_tl.ucf:21]
CRITICAL WARNING: [Constraints 18-11] Could not find net or pin 'o_DOUTB[17]' [D:/Androsov/spi/ADC_control/ise/adc_cntr_prjctl/adc_cntrl_tl.ucf:23]
CRITICAL WARNING: [Constraints 18-11] Could not find net or pin 'o_DOUTB[16]' [D:/Androsov/spi/ADC_control/ise/adc_cntr_prjctl/adc_cntrl_tl.ucf:24]
CRITICAL WARNING: [Constraints 18-11] Could not find net or pin 'o_DOUTB[15]' [D:/Androsov/spi/ADC_control/ise/adc_cntr_prjctl/adc_cntrl_tl.ucf:25]
CRITICAL WARNING: [Constraints 18-11] Could not find net or pin 'o_DOUTB[14]' [D:/Androsov/spi/ADC_control/ise/adc_cntr_prjctl/adc_cntrl_tl.ucf:26]
CRITICAL WARNING: [Constraints 18-11] Could not find net or pin 'o_DOUTB[13]' [D:/Androsov/spi/ADC_control/ise/adc_cntr_prjctl/adc_cntrl_tl.ucf:27]
CRITICAL WARNING: [Constraints 18-11] Could not find net or pin 'o_DOUTB[12]' [D:/Androsov/spi/ADC_control/ise/adc_cntr_prjctl/adc_cntrl_tl.ucf:28]
CRITICAL WARNING: [Constraints 18-11] Could not find net or pin 'o_DOUTB[11]' [D:/Androsov/spi/ADC_control/ise/adc_cntr_prjctl/adc_cntrl_tl.ucf:29]
CRITICAL WARNING: [Constraints 18-11] Could not find net or pin 'o_DOUTB[10]' [D:/Androsov/spi/ADC_control/ise/adc_cntr_prjctl/adc_cntrl_tl.ucf:30]
CRITICAL WARNING: [Constraints 18-11] Could not find net or pin 'o_DOUTB[9]' [D:/Androsov/spi/ADC_control/ise/adc_cntr_prjctl/adc_cntrl_tl.ucf:31]
CRITICAL WARNING: [Constraints 18-11] Could not find net or pin 'o_DOUTB[8]' [D:/Androsov/spi/ADC_control/ise/adc_cntr_prjctl/adc_cntrl_tl.ucf:32]
CRITICAL WARNING: [Constraints 18-11] Could not find net or pin 'o_DOUTB[7]' [D:/Androsov/spi/ADC_control/ise/adc_cntr_prjctl/adc_cntrl_tl.ucf:33]
CRITICAL WARNING: [Constraints 18-11] Could not find net or pin 'o_DOUTB[6]' [D:/Androsov/spi/ADC_control/ise/adc_cntr_prjctl/adc_cntrl_tl.ucf:34]
CRITICAL WARNING: [Constraints 18-11] Could not find net or pin 'o_DOUTB[5]' [D:/Androsov/spi/ADC_control/ise/adc_cntr_prjctl/adc_cntrl_tl.ucf:35]
CRITICAL WARNING: [Constraints 18-11] Could not find net or pin 'o_DOUTB[4]' [D:/Androsov/spi/ADC_control/ise/adc_cntr_prjctl/adc_cntrl_tl.ucf:36]
CRITICAL WARNING: [Constraints 18-11] Could not find net or pin 'o_DOUTB[3]' [D:/Androsov/spi/ADC_control/ise/adc_cntr_prjctl/adc_cntrl_tl.ucf:37]
CRITICAL WARNING: [Constraints 18-11] Could not find net or pin 'o_DOUTB[2]' [D:/Androsov/spi/ADC_control/ise/adc_cntr_prjctl/adc_cntrl_tl.ucf:38]
CRITICAL WARNING: [Constraints 18-11] Could not find net or pin 'o_DOUTB[1]' [D:/Androsov/spi/ADC_control/ise/adc_cntr_prjctl/adc_cntrl_tl.ucf:39]
CRITICAL WARNING: [Constraints 18-11] Could not find net or pin 'o_DOUTB[0]' [D:/Androsov/spi/ADC_control/ise/adc_cntr_prjctl/adc_cntrl_tl.ucf:40]
Finished Parsing UCF File [D:/Androsov/spi/ADC_control/ise/adc_cntr_prjctl/adc_cntrl_tl.ucf]
INFO: [Designutils 20-20] Invalid constraints found, use command 'write_ucf -constraints invalid <file>' to save all the invalid constraints to a file
INFO: [Project 1-111] Unisim Transformation Summary:
No Unisim elements were transformed.

Phase 0 | Netlist Checksum: c1f06f64
link_design: Time (s): elapsed = 00:00:10 . Memory (MB): peak = 929.996 ; gain = 163.707
set_property iostandard LVCMOS33 [get_ports [list {sw[2]} {sw[1]} {sw[0]}]]
startgroup
set_property package_pin P24 [get_ports {sw[2]}]
endgroup
startgroup
set_property package_pin P26 [get_ports {sw[1]}]
endgroup
startgroup
set_property package_pin P27 [get_ports {sw[0]}]
endgroup
save_constraints
refresh_design
Release 14.7 - ngc2edif P.20131013 (nt64)
Copyright (c) 1995-2013 Xilinx, Inc.  All rights reserved.
Reading design adc_cntrl_tl_cs.ngc ...
Processing design ...
   Preping design's networks ...
   Preping design's macros ...
WARNING:NetListWriters:306 - Signal bus
   U0/I_NO_D.U_ILA/U_RST/U_HALT_XFER/iDOUT_dly<2 : 0> on block ila_pro_0 is not
   reconstructed, because there are some missing bus signals.
WARNING:NetListWriters:306 - Signal bus
   U0/I_NO_D.U_ILA/U_RST/U_ARM_XFER/iDOUT_dly<4 : 0> on block ila_pro_0 is not
   reconstructed, because there are some missing bus signals.
WARNING:NetListWriters:306 - Signal bus U0/U_ICON/iCORE_ID_SEL<15 : 0> on block
   icon_pro is not reconstructed, because there are some missing bus signals.
  finished :Prep
Writing EDIF netlist file adc_cntrl_tl_cs.edif ...
ngc2edif: Total memory usage is 4322560 kilobytes

Parsing EDIF File [./planAhead_run_2/adc_cntr_prjctl.data/cache/adc_cntrl_tl_cs_ngc_zx.edif]
Finished Parsing EDIF File [./planAhead_run_2/adc_cntr_prjctl.data/cache/adc_cntrl_tl_cs_ngc_zx.edif]
WARNING: [Timing 38-83] Timing library cell SRLC32E does not define port A[4] which is referred to in the netlist. The library cell will be ignored and the cell will be treated as a black box for timing purposes.
WARNING: [Timing 38-83] Timing library cell SRLC32E does not define port A[3] which is referred to in the netlist. The library cell will be ignored and the cell will be treated as a black box for timing purposes.
WARNING: [Timing 38-83] Timing library cell SRLC32E does not define port A[2] which is referred to in the netlist. The library cell will be ignored and the cell will be treated as a black box for timing purposes.
WARNING: [Timing 38-83] Timing library cell SRLC32E does not define port A[1] which is referred to in the netlist. The library cell will be ignored and the cell will be treated as a black box for timing purposes.
WARNING: [Timing 38-83] Timing library cell SRLC32E does not define port A[0] which is referred to in the netlist. The library cell will be ignored and the cell will be treated as a black box for timing purposes.
Parsing UCF File [D:/Androsov/spi/ADC_control/ise/adc_cntr_prjctl/.Xil/PlanAhead-14276-androsov-es/ngc2edif/adc_cntrl_tl_cs.xncf]
Finished Parsing UCF File [D:/Androsov/spi/ADC_control/ise/adc_cntr_prjctl/.Xil/PlanAhead-14276-androsov-es/ngc2edif/adc_cntrl_tl_cs.xncf]
Parsing UCF File [D:/Androsov/spi/ADC_control/ise/adc_cntr_prjctl/adc_cntrl_tl.ucf]
Finished Parsing UCF File [D:/Androsov/spi/ADC_control/ise/adc_cntr_prjctl/adc_cntrl_tl.ucf]
refresh_design
Release 14.7 - ngc2edif P.20131013 (nt64)
Copyright (c) 1995-2013 Xilinx, Inc.  All rights reserved.
Reading design adc_cntrl_tl_cs.ngc ...
Processing design ...
   Preping design's networks ...
   Preping design's macros ...
WARNING:NetListWriters:306 - Signal bus
   U0/I_NO_D.U_ILA/U_RST/U_HALT_XFER/iDOUT_dly<2 : 0> on block ila_pro_0 is not
   reconstructed, because there are some missing bus signals.
WARNING:NetListWriters:306 - Signal bus
   U0/I_NO_D.U_ILA/U_RST/U_ARM_XFER/iDOUT_dly<4 : 0> on block ila_pro_0 is not
   reconstructed, because there are some missing bus signals.
WARNING:NetListWriters:306 - Signal bus U0/U_ICON/iCORE_ID_SEL<15 : 0> on block
   icon_pro is not reconstructed, because there are some missing bus signals.
  finished :Prep
Writing EDIF netlist file adc_cntrl_tl_cs.edif ...
ngc2edif: Total memory usage is 4322560 kilobytes

Parsing EDIF File [./planAhead_run_2/adc_cntr_prjctl.data/cache/adc_cntrl_tl_cs_ngc_zx.edif]
Finished Parsing EDIF File [./planAhead_run_2/adc_cntr_prjctl.data/cache/adc_cntrl_tl_cs_ngc_zx.edif]
WARNING: [Timing 38-83] Timing library cell SRLC32E does not define port A[4] which is referred to in the netlist. The library cell will be ignored and the cell will be treated as a black box for timing purposes.
WARNING: [Timing 38-83] Timing library cell SRLC32E does not define port A[3] which is referred to in the netlist. The library cell will be ignored and the cell will be treated as a black box for timing purposes.
WARNING: [Timing 38-83] Timing library cell SRLC32E does not define port A[2] which is referred to in the netlist. The library cell will be ignored and the cell will be treated as a black box for timing purposes.
WARNING: [Timing 38-83] Timing library cell SRLC32E does not define port A[1] which is referred to in the netlist. The library cell will be ignored and the cell will be treated as a black box for timing purposes.
WARNING: [Timing 38-83] Timing library cell SRLC32E does not define port A[0] which is referred to in the netlist. The library cell will be ignored and the cell will be treated as a black box for timing purposes.
Parsing UCF File [D:/Androsov/spi/ADC_control/ise/adc_cntr_prjctl/.Xil/PlanAhead-14276-androsov-es/ngc2edif/adc_cntrl_tl_cs.xncf]
Finished Parsing UCF File [D:/Androsov/spi/ADC_control/ise/adc_cntr_prjctl/.Xil/PlanAhead-14276-androsov-es/ngc2edif/adc_cntrl_tl_cs.xncf]
Parsing UCF File [D:/Androsov/spi/ADC_control/ise/adc_cntr_prjctl/adc_cntrl_tl.ucf]
Finished Parsing UCF File [D:/Androsov/spi/ADC_control/ise/adc_cntr_prjctl/adc_cntrl_tl.ucf]
startgroup
set_property package_pin P24 [get_ports {sw[2]}]
endgroup
startgroup
set_property package_pin P17 [get_ports {sw[2]}]
endgroup
startgroup
set_property package_pin P21 [get_ports {sw[1]}]
endgroup
startgroup
set_property package_pin P22 [get_ports {sw[0]}]
endgroup
save_constraints
